[
    {
      "id": "japan",
      "color": "hsl(304, 70%, 50%)",
      "data": [
        {
          "x": "plane",
          "y": 135
        },
        {
          "x": "helicopter",
          "y": 74
        },
        {
          "x": "boat",
          "y": 291
        },
        {
          "x": "train",
          "y": 286
        },
        {
          "x": "subway",
          "y": 7
        },
        {
          "x": "bus",
          "y": 148
        },
        {
          "x": "car",
          "y": 8
        },
        {
          "x": "moto",
          "y": 78
        },
        {
          "x": "bicycle",
          "y": 57
        },
        {
          "x": "horse",
          "y": 70
        },
        {
          "x": "skateboard",
          "y": 239
        },
        {
          "x": "others",
          "y": 177
        }
      ]
    }      
  ]