[
    {
      "Month/Year": "2019-09",
      "group": "blue",
      "flights": "668620"
    },
    {
        "Month/Year": "2019-10",
        "group": "blue",
        "flights": "662520"
    },
    {
        "Month/Year": "2019-09",
        "group": "green",
        "flights": "662520"
    },
    {
        "Month/Year": "2019-10",
        "group": "green",
        "flights": "678520"
    }
]